{
  "src_folders": ["./tests"],
  "output_folder": "./reports",
  "custom_commands_path": "./framework/commands",
  "page_objects_path": "./framework/pages",
  "globals_path": "",

  "selenium": {
    "start_process": true,
    "server_path": "./lib/selenium-server-standalone-2.53.1.jar",
    "log_path": "",
    "host": "127.0.0.1",
    "port": 4444,
    "cli_args": {
      "webdriver.chrome.driver" : "./lib/chrome/chromedriver"
    }
  },
  "test_settings": {
    "default": {
      "globals" : {
          "waitForConditionTimeout" : 20000
      },
      "launch_url": "http://localhost:9393",
      "selenium_port": 4444,
      "selenium_host": "localhost",
      "silent": true,
      "screenshots": {
        "enabled": true,
        "on_failure": true,
        "on_error": true,
        "path": "./screenshots"
      },
      "desiredCapabilities" : {
        "browserName" : "chrome",
        "javascriptEnabled" : true,
        "acceptSslCerts" : true,
        "unexpectedAlertBehaviour" : "dismiss",
        "chromeOptions" : {
          "args" : ["--no-sandbox"]
        }
      }
    }
  }
}
